{"query" : {
      "bool": {
         "must": {
            "match_phrase": { "fields.directors": "Clint Eastwood" }
  }}},
  "aggs" : {
            "note_moyenne" : {
                        "avg" : {"field" : "fields.rating"}
            },
            "rang_moyen" : {
                        "avg" : {"field" : "fields.rank"}
   }
}}
