1,Aida,01000
2,Alexandr,02000
3,Ana,03000
4,Chahl,04000
5,Chaim,05000
6,Corenti,06000
7,Eva,07000
8,Guillemette,08000
9,Iman,09000
10,Matthia,10000
11,Meriem,11000
12,Mickaë,12000
13,Mohamed Ami,13000
14,Neza,14000
15,Nou,15000
16,Sofia,16000
17,Sylwy,18000
18,Tess,18000
19,Thoma,19000
20,Wassi,20000
21,Wissal,21000
22,Xavie,22000
23,Zakaria,23000
24,Olivie,24750
